{
        "Comment": "",
        "Changes": [
            {
                "Action": "UPSERT",
                "ResourceRecordSet": {
                    "Name": "HOSTNAMEGOESHERE",
                    "Type": "A",
                    "TTL": 600,
                    "ResourceRecords": [
                        {
                            "Value": "NEWIPGOESHERE"
                        }
                    ]
                }
            }
        ]
}
